﻿Year,Stream,Treatment,Light,Stage,GPP
2009,TAY,Intro,557.16,20.87,3.11
2009,TAY,Intro,213.46,,1.1
2009,TAY,Intro,234.64,,1.19
2009,TAY,Intro,731.11,,1.5
2009,TAY,Intro,170.86,21.47,1.14
2009,TAY,Intro,459.83,20.96,3.1
2009,TAY,Control,371.6,20.87,2.9
2009,TAY,Control,164.76,20.63,2.3
2009,TAY,Control,132.8,,1.12
2009,TAY,Control,254.05,21.47,1.28
2009,TAY,Control,264.52,21.05,0.9
2010,TAY,Intro,334.55,12.84,4.59
2010,TAY,Intro,195.2,12.76,4.41
2010,TAY,Intro,408.26,12.68,4.23
2010,TAY,Control,311.57,12.84,4.56
2010,TAY,Control,167.42,12.76,4.7
2010,TAY,Control,365.7,12.68,4.51
2011,TAY,Intro,307.15,32.12,1.75
2011,TAY,Intro,80.89,32.12,1.12
2011,TAY,Intro,143.27,32.12,1.1
2011,TAY,Intro,214.41,32.12,1.08
2011,TAY,Control,219.32,31.36,0.44
2011,TAY,Control,74.5,31.36,0.76
2011,TAY,Control,410.29,31.36,0.6
2011,TAY,Control,172.45,31.36,0.58