plot,fence,grazing,year,wet,sp_richness
A1,1,A,2004,D,21
A1,1,A,2004,D,22
A1,1,A,2004,D,22
A1,1,A,2004,D,22
A1,1,A,2004,D,170
A1,1,A,2004,D,21
A1,1,A,2004,D,18
A1,1,A,2004,D,17
A1,1,A,2004,D,22
A1,1,A,2004,W,28
A1,1,A,2004,W,33
A1,1,A,2004,W,31
A1,1,A,2004,W,24
A1,1,A,2004,W,189
A1,1,A,2004,W,31
A1,1,A,2004,W,32
A1,1,A,2004,W,28
A1,1,A,2004,W,22
A2,2,A,2004,D,9
A2,2,A,2004,D,8
A2,2,A,2004,D,6
A2,2,A,2004,D,11
A2,2,A,2004,D,259
A2,2,A,2004,D,11
A2,2,A,2004,D,14
A2,2,A,2004,D,13
A2,2,A,2004,D,10
A2,2,A,2004,W,29
A2,2,A,2004,W,29
A2,2,A,2004,W,28
A2,2,A,2004,W,28
A2,2,A,2004,W,220
A2,2,A,2004,W,27
A2,2,A,2004,W,25
A2,2,A,2004,W,26
A2,2,A,2004,W,25
A3,3,A,2004,D,29
A3,3,A,2004,D,34
A3,3,A,2004,D,28
A3,3,A,2004,D,32
A3,3,A,2004,D,311
A3,3,A,2004,D,39
A3,3,A,2004,D,34
A3,3,A,2004,D,34
A3,3,A,2004,D,40
A3,3,A,2004,W,9
A3,3,A,2004,W,19
A3,3,A,2004,W,15
A3,3,A,2004,W,9
A3,3,A,2004,W,244
A3,3,A,2004,W,11
A3,3,A,2004,W,10
A3,3,A,2004,W,10
A3,3,A,2004,W,5
A4,4,A,2004,D,13
A4,4,A,2004,D,11
A4,4,A,2004,D,15
A4,4,A,2004,D,18
A4,4,A,2004,D,114
A4,4,A,2004,D,13
A4,4,A,2004,D,19
A4,4,A,2004,D,20
A4,4,A,2004,D,15
A4,4,A,2004,W,33
A4,4,A,2004,W,32
A4,4,A,2004,W,29
A4,4,A,2004,W,29
A4,4,A,2004,W,96
A4,4,A,2004,W,26
A4,4,A,2004,W,34
A4,4,A,2004,W,33
A4,4,A,2004,W,34
A5,5,A,2004,D,21
A5,5,A,2004,D,17
A5,5,A,2004,D,13
A5,5,A,2004,D,22
A5,5,A,2004,D,211
A5,5,A,2004,D,21
A5,5,A,2004,D,20
A5,5,A,2004,D,19
A5,5,A,2004,D,21
A5,5,A,2004,W,30
A5,5,A,2004,W,28
A5,5,A,2004,W,26
A5,5,A,2004,W,26
A5,5,A,2004,W,163
A5,5,A,2004,W,27
A5,5,A,2004,W,27
A5,5,A,2004,W,30
A5,5,A,2004,W,28
A6,6,A,2004,D,32
A6,6,A,2004,D,23
A6,6,A,2004,D,30
A6,6,A,2004,D,29
A6,6,A,2004,D,280
A6,6,A,2004,D,23
A6,6,A,2004,D,24
A6,6,A,2004,D,30
A6,6,A,2004,D,31
A6,6,A,2004,W,24
A6,6,A,2004,W,27
A6,6,A,2004,W,30
A6,6,A,2004,W,30
A6,6,A,2004,W,308
A6,6,A,2004,W,27
A6,6,A,2004,W,24
A6,6,A,2004,W,28
A6,6,A,2004,W,27
A1,1,A,2005,D,23
A1,1,A,2005,D,24
A1,1,A,2005,D,21
A1,1,A,2005,D,22
A1,1,A,2005,D,132
A1,1,A,2005,D,18
A1,1,A,2005,D,17
A1,1,A,2005,D,21
A1,1,A,2005,D,22
A2,2,A,2005,D,14
A2,2,A,2005,D,10
A2,2,A,2005,D,6
A2,2,A,2005,D,10
A2,2,A,2005,D,175
A2,2,A,2005,D,15
A2,2,A,2005,D,14
A2,2,A,2005,D,15
A2,2,A,2005,D,11
A3,3,A,2005,D,34
A3,3,A,2005,D,29
A3,3,A,2005,D,26
A3,3,A,2005,D,27
A3,3,A,2005,D,302
A3,3,A,2005,D,30
A3,3,A,2005,D,28
A3,3,A,2005,D,33
A3,3,A,2005,D,27
A4,4,A,2005,D,15
A4,4,A,2005,D,11
A4,4,A,2005,D,13
A4,4,A,2005,D,9
A4,4,A,2005,D,101
A4,4,A,2005,D,15
A4,4,A,2005,D,12
A4,4,A,2005,D,11
A4,4,A,2005,D,11
A5,5,A,2005,D,15
A5,5,A,2005,D,17
A5,5,A,2005,D,12
A5,5,A,2005,D,12
A5,5,A,2005,D,208
A5,5,A,2005,D,14
A5,5,A,2005,D,13
A5,5,A,2005,D,18
A5,5,A,2005,D,18
A6,6,A,2005,D,26
A6,6,A,2005,D,25
A6,6,A,2005,D,27
A6,6,A,2005,D,30
A6,6,A,2005,D,189
A6,6,A,2005,D,19
A6,6,A,2005,D,29
A6,6,A,2005,D,22
A6,6,A,2005,D,23
A1,1,A,2005,W,21
A1,1,A,2005,W,16
A1,1,A,2005,W,21
A1,1,A,2005,W,20
A1,1,A,2005,W,132
A1,1,A,2005,W,19
A1,1,A,2005,W,27
A1,1,A,2005,W,21
A1,1,A,2005,W,22
A2,2,A,2005,W,20
A2,2,A,2005,W,19
A2,2,A,2005,W,21
A2,2,A,2005,W,19
A2,2,A,2005,W,160
A2,2,A,2005,W,20
A2,2,A,2005,W,22
A2,2,A,2005,W,20
A2,2,A,2005,W,18
A3,3,A,2005,W,5
A3,3,A,2005,W,6
A3,3,A,2005,W,12
A3,3,A,2005,W,10
A3,3,A,2005,W,356
A3,3,A,2005,W,8
A3,3,A,2005,W,5
A3,3,A,2005,W,6
A3,3,A,2005,W,10
A4,4,A,2005,W,29
A4,4,A,2005,W,31
A4,4,A,2005,W,29
A4,4,A,2005,W,33
A4,4,A,2005,W,170
A4,4,A,2005,W,31
A4,4,A,2005,W,30
A4,4,A,2005,W,34
A4,4,A,2005,W,30
A5,5,A,2005,W,24
A5,5,A,2005,W,25
A5,5,A,2005,W,26
A5,5,A,2005,W,22
A5,5,A,2005,W,245
A5,5,A,2005,W,26
A5,5,A,2005,W,26
A5,5,A,2005,W,24
A5,5,A,2005,W,27
A6,6,A,2005,W,27
A6,6,A,2005,W,25
A6,6,A,2005,W,26
A6,6,A,2005,W,24
A6,6,A,2005,W,185
A6,6,A,2005,W,27
A6,6,A,2005,W,25
A6,6,A,2005,W,23
A6,6,A,2005,W,27
A1,1,A,2006,D,19
A1,1,A,2006,D,22
A1,1,A,2006,D,22
A1,1,A,2006,D,24
A1,1,A,2006,D,92
A1,1,A,2006,D,15
A1,1,A,2006,D,15
A1,1,A,2006,D,17
A1,1,A,2006,D,24
A1,1,A,2006,W,17
A1,1,A,2006,W,13
A1,1,A,2006,W,16
A1,1,A,2006,W,15
A1,1,A,2006,W,81
A1,1,A,2006,W,10
A1,1,A,2006,W,18
A1,1,A,2006,W,24
A1,1,A,2006,W,16
A2,2,A,2006,D,11
A2,2,A,2006,D,11
A2,2,A,2006,D,6
A2,2,A,2006,D,7
A2,2,A,2006,D,126
A2,2,A,2006,D,14
A2,2,A,2006,D,10
A2,2,A,2006,D,12
A2,2,A,2006,D,9
A2,2,A,2006,W,18
A2,2,A,2006,W,21
A2,2,A,2006,W,21
A2,2,A,2006,W,19
A2,2,A,2006,W,123
A2,2,A,2006,W,23
A2,2,A,2006,W,23
A2,2,A,2006,W,21
A2,2,A,2006,W,22
A3,3,A,2006,D,31
A3,3,A,2006,D,27
A3,3,A,2006,D,22
A3,3,A,2006,D,18
A3,3,A,2006,D,147
A3,3,A,2006,D,21
A3,3,A,2006,D,20
A3,3,A,2006,D,21
A3,3,A,2006,D,29
A3,3,A,2006,W,5
A3,3,A,2006,W,10
A3,3,A,2006,W,13
A3,3,A,2006,W,11
A3,3,A,2006,W,121
A3,3,A,2006,W,10
A3,3,A,2006,W,9
A3,3,A,2006,W,7
A3,3,A,2006,W,16
A4,4,A,2006,D,15
A4,4,A,2006,D,10
A4,4,A,2006,D,13
A4,4,A,2006,D,8
A4,4,A,2006,D,82
A4,4,A,2006,D,15
A4,4,A,2006,D,16
A4,4,A,2006,D,11
A4,4,A,2006,D,13
A4,4,A,2006,W,28
A4,4,A,2006,W,24
A4,4,A,2006,W,27
A4,4,A,2006,W,29
A4,4,A,2006,W,152
A4,4,A,2006,W,27
A4,4,A,2006,W,28
A4,4,A,2006,W,26
A4,4,A,2006,W,25
A5,5,A,2006,D,14
A5,5,A,2006,D,20
A5,5,A,2006,D,15
A5,5,A,2006,D,11
A5,5,A,2006,D,164
A5,5,A,2006,D,15
A5,5,A,2006,D,15
A5,5,A,2006,D,17
A5,5,A,2006,D,20
A5,5,A,2006,W,23
A5,5,A,2006,W,24
A5,5,A,2006,W,20
A5,5,A,2006,W,25
A5,5,A,2006,W,168
A5,5,A,2006,W,23
A5,5,A,2006,W,26
A5,5,A,2006,W,22
A5,5,A,2006,W,24
A6,6,A,2006,D,22
A6,6,A,2006,D,27
A6,6,A,2006,D,28
A6,6,A,2006,D,29
A6,6,A,2006,D,151
A6,6,A,2006,D,22
A6,6,A,2006,D,30
A6,6,A,2006,D,28
A6,6,A,2006,D,24
A1,1,A,2007,D,25
A1,1,A,2007,D,21
A1,1,A,2007,D,21
A1,1,A,2007,D,20
A1,1,A,2007,D,122
A1,1,A,2007,D,15
A1,1,A,2007,D,18
A1,1,A,2007,D,20
A1,1,A,2007,D,19
A1,1,A,2007,W,18
A1,1,A,2007,W,18
A1,1,A,2007,W,21
A1,1,A,2007,W,24
A1,1,A,2007,W,130
A1,1,A,2007,W,20
A1,1,A,2007,W,28
A1,1,A,2007,W,23
A1,1,A,2007,W,20
A2,2,A,2007,D,13
A2,2,A,2007,D,12
A2,2,A,2007,D,7
A2,2,A,2007,D,10
A2,2,A,2007,D,180
A2,2,A,2007,D,13
A2,2,A,2007,D,15
A2,2,A,2007,D,10
A2,2,A,2007,D,9
A2,2,A,2007,W,19
A2,2,A,2007,W,19
A2,2,A,2007,W,20
A2,2,A,2007,W,17
A2,2,A,2007,W,132
A2,2,A,2007,W,18
A2,2,A,2007,W,17
A2,2,A,2007,W,15
A2,2,A,2007,W,18
A3,3,A,2007,D,29
A3,3,A,2007,D,22
A3,3,A,2007,D,19
A3,3,A,2007,D,26
A3,3,A,2007,D,196
A3,3,A,2007,D,22
A3,3,A,2007,D,20
A3,3,A,2007,D,24
A3,3,A,2007,D,19
A3,3,A,2007,W,7
A3,3,A,2007,W,12
A3,3,A,2007,W,15
A3,3,A,2007,W,7
A3,3,A,2007,W,158
A3,3,A,2007,W,10
A3,3,A,2007,W,6
A3,3,A,2007,W,14
A3,3,A,2007,W,14
A4,4,A,2007,D,15
A4,4,A,2007,D,13
A4,4,A,2007,D,11
A4,4,A,2007,D,12
A4,4,A,2007,D,127
A4,4,A,2007,D,17
A4,4,A,2007,D,18
A4,4,A,2007,D,12
A4,4,A,2007,D,14
A4,4,A,2007,W,20
A4,4,A,2007,W,18
A4,4,A,2007,W,22
A4,4,A,2007,W,25
A4,4,A,2007,W,35
A4,4,A,2007,W,19
A4,4,A,2007,W,17
A4,4,A,2007,W,17
A4,4,A,2007,W,20
A5,5,A,2007,D,16
A5,5,A,2007,D,16
A5,5,A,2007,D,12
A5,5,A,2007,D,11
A5,5,A,2007,D,148
A5,5,A,2007,D,17
A5,5,A,2007,D,13
A5,5,A,2007,D,17
A5,5,A,2007,D,15
A5,5,A,2007,W,20
A5,5,A,2007,W,23
A5,5,A,2007,W,18
A5,5,A,2007,W,22
A5,5,A,2007,W,181
A5,5,A,2007,W,22
A5,5,A,2007,W,24
A5,5,A,2007,W,23
A5,5,A,2007,W,24
A6,6,A,2007,D,27
A6,6,A,2007,D,26
A6,6,A,2007,D,25
A6,6,A,2007,D,23
A6,6,A,2007,D,96
A6,6,A,2007,D,23
A6,6,A,2007,D,26
A6,6,A,2007,D,25
A6,6,A,2007,D,20
B1,1,B,2004,D,24
B1,1,B,2004,D,19
B1,1,B,2004,D,25
B1,1,B,2004,D,21
B1,1,B,2004,D,245
B1,1,B,2004,D,17
B1,1,B,2004,D,17
B1,1,B,2004,D,19
B1,1,B,2004,D,20
B1,1,B,2004,W,28
B1,1,B,2004,W,24
B1,1,B,2004,W,30
B1,1,B,2004,W,27
B1,1,B,2004,W,325
B1,1,B,2004,W,22
B1,1,B,2004,W,27
B1,1,B,2004,W,33
B1,1,B,2004,W,32
B2,2,B,2004,D,13
B2,2,B,2004,D,14
B2,2,B,2004,D,16
B2,2,B,2004,D,17
B2,2,B,2004,D,156
B2,2,B,2004,D,16
B2,2,B,2004,D,16
B2,2,B,2004,D,13
B2,2,B,2004,D,15
B2,2,B,2004,W,25
B2,2,B,2004,W,26
B2,2,B,2004,W,32
B2,2,B,2004,W,32
B2,2,B,2004,W,317
B2,2,B,2004,W,30
B2,2,B,2004,W,32
B2,2,B,2004,W,30
B2,2,B,2004,W,30
B3,3,B,2004,D,45
B3,3,B,2004,D,42
B3,3,B,2004,D,42
B3,3,B,2004,D,42
B3,3,B,2004,D,177
B3,3,B,2004,D,46
B3,3,B,2004,D,42
B3,3,B,2004,D,39
B3,3,B,2004,D,38
B3,3,B,2004,W,6
B3,3,B,2004,W,5
B3,3,B,2004,W,7
B3,3,B,2004,W,11
B3,3,B,2004,W,127
B3,3,B,2004,W,10
B3,3,B,2004,W,12
B3,3,B,2004,W,11
B3,3,B,2004,W,15
B4,4,B,2004,D,23
B4,4,B,2004,D,25
B4,4,B,2004,D,28
B4,4,B,2004,D,23
B4,4,B,2004,D,134
B4,4,B,2004,D,23
B4,4,B,2004,D,26
B4,4,B,2004,D,28
B4,4,B,2004,D,20
B4,4,B,2004,W,15
B4,4,B,2004,W,13
B4,4,B,2004,W,16
B4,4,B,2004,W,19
B4,4,B,2004,W,118
B4,4,B,2004,W,11
B4,4,B,2004,W,15
B4,4,B,2004,W,13
B4,4,B,2004,W,15
B5,5,B,2004,D,17
B5,5,B,2004,D,27
B5,5,B,2004,D,25
B5,5,B,2004,D,22
B5,5,B,2004,D,245
B5,5,B,2004,D,21
B5,5,B,2004,D,22
B5,5,B,2004,D,26
B5,5,B,2004,D,27
B5,5,B,2004,W,22
B5,5,B,2004,W,27
B5,5,B,2004,W,26
B5,5,B,2004,W,27
B5,5,B,2004,W,221
B5,5,B,2004,W,26
B5,5,B,2004,W,23
B5,5,B,2004,W,25
B5,5,B,2004,W,29
B6,6,B,2004,D,29
B6,6,B,2004,D,32
B6,6,B,2004,D,29
B6,6,B,2004,D,36
B6,6,B,2004,D,235
B6,6,B,2004,D,36
B6,6,B,2004,D,35
B6,6,B,2004,D,29
B6,6,B,2004,D,28
B6,6,B,2004,W,30
B6,6,B,2004,W,21
B6,6,B,2004,W,24
B6,6,B,2004,W,30
B6,6,B,2004,W,359
B6,6,B,2004,W,20
B6,6,B,2004,W,33
B1,1,B,2005,D,18
B1,1,B,2005,D,11
B1,1,B,2005,D,14
B1,1,B,2005,D,14
B1,1,B,2005,D,148
B1,1,B,2005,D,14
B1,1,B,2005,D,18
B1,1,B,2005,D,15
B1,1,B,2005,D,15
B2,2,B,2005,D,14
B2,2,B,2005,D,16
B2,2,B,2005,D,15
B2,2,B,2005,D,15
B2,2,B,2005,D,124
B2,2,B,2005,D,14
B2,2,B,2005,D,14
B2,2,B,2005,D,11
B2,2,B,2005,D,14
B3,3,B,2005,D,32
B3,3,B,2005,D,38
B3,3,B,2005,D,34
B3,3,B,2005,D,33
B3,3,B,2005,D,136
B3,3,B,2005,D,35
B3,3,B,2005,D,40
B3,3,B,2005,D,39
B3,3,B,2005,D,37
B4,4,B,2005,D,13
B4,4,B,2005,D,9
B4,4,B,2005,D,11
B4,4,B,2005,D,11
B4,4,B,2005,D,290
B4,4,B,2005,D,15
B4,4,B,2005,D,14
B4,4,B,2005,D,17
B4,4,B,2005,D,14
B5,5,B,2005,D,17
B5,5,B,2005,D,21
B5,5,B,2005,D,20
B5,5,B,2005,D,25
B5,5,B,2005,D,185
B5,5,B,2005,D,26
B5,5,B,2005,D,24
B5,5,B,2005,D,22
B5,5,B,2005,D,26
B6,6,B,2005,D,25
B6,6,B,2005,D,27
B6,6,B,2005,D,26
B6,6,B,2005,D,29
B6,6,B,2005,D,212
B6,6,B,2005,D,28
B6,6,B,2005,D,27
B6,6,B,2005,D,27
B6,6,B,2005,D,27
B1,1,B,2005,W,21
B1,1,B,2005,W,17
B1,1,B,2005,W,20
B1,1,B,2005,W,28
B1,1,B,2005,W,227
B1,1,B,2005,W,19
B1,1,B,2005,W,25
B1,1,B,2005,W,21
B1,1,B,2005,W,26
B2,2,B,2005,W,18
B2,2,B,2005,W,19
B2,2,B,2005,W,28
B2,2,B,2005,W,26
B2,2,B,2005,W,275
B2,2,B,2005,W,21
B2,2,B,2005,W,22
B2,2,B,2005,W,27
B2,2,B,2005,W,33
B3,3,B,2005,W,4
B3,3,B,2005,W,7
B3,3,B,2005,W,12
B3,3,B,2005,W,11
B3,3,B,2005,W,126
B3,3,B,2005,W,8
B3,3,B,2005,W,8
B3,3,B,2005,W,11
B3,3,B,2005,W,13
B4,4,B,2005,W,21
B4,4,B,2005,W,19
B4,4,B,2005,W,19
B4,4,B,2005,W,20
B4,4,B,2005,W,245
B4,4,B,2005,W,23
B4,4,B,2005,W,23
B4,4,B,2005,W,19
B4,4,B,2005,W,17
B5,5,B,2005,W,21
B5,5,B,2005,W,22
B5,5,B,2005,W,18
B5,5,B,2005,W,26
B5,5,B,2005,W,234
B5,5,B,2005,W,25
B5,5,B,2005,W,27
B5,5,B,2005,W,24
B5,5,B,2005,W,25
B6,6,B,2005,W,22
B6,6,B,2005,W,28
B6,6,B,2005,W,30
B6,6,B,2005,W,28
B6,6,B,2005,W,213
B6,6,B,2005,W,26
B6,6,B,2005,W,25
B6,6,B,2005,W,30
B6,6,B,2005,W,21
B1,1,B,2006,D,14
B1,1,B,2006,D,12
B1,1,B,2006,D,16
B1,1,B,2006,D,13
B1,1,B,2006,D,105
B1,1,B,2006,D,13
B1,1,B,2006,D,18
B1,1,B,2006,D,18
B1,1,B,2006,D,19
B1,1,B,2006,W,24
B1,1,B,2006,W,21
B1,1,B,2006,W,22
B1,1,B,2006,W,27
B1,1,B,2006,W,140
B1,1,B,2006,W,17
B1,1,B,2006,W,24
B1,1,B,2006,W,24
B1,1,B,2006,W,22
B2,2,B,2006,D,12
B2,2,B,2006,D,18
B2,2,B,2006,D,14
B2,2,B,2006,D,14
B2,2,B,2006,D,88
B2,2,B,2006,D,11
B2,2,B,2006,D,17
B2,2,B,2006,D,13
B2,2,B,2006,D,12
B2,2,B,2006,W,19
B2,2,B,2006,W,23
B2,2,B,2006,W,24
B2,2,B,2006,W,24
B2,2,B,2006,W,117
B2,2,B,2006,W,26
B2,2,B,2006,W,21
B2,2,B,2006,W,27
B2,2,B,2006,W,25
B3,3,B,2006,D,35
B3,3,B,2006,D,33
B3,3,B,2006,D,38
B3,3,B,2006,D,38
B3,3,B,2006,D,91
B3,3,B,2006,D,36
B3,3,B,2006,D,30
B3,3,B,2006,D,30
B3,3,B,2006,D,32
B3,3,B,2006,W,5
B3,3,B,2006,W,3
B3,3,B,2006,W,8
B3,3,B,2006,W,6
B3,3,B,2006,W,96
B3,3,B,2006,W,6
B3,3,B,2006,W,4
B3,3,B,2006,W,9
B3,3,B,2006,W,6
B4,4,B,2006,D,10
B4,4,B,2006,D,7
B4,4,B,2006,D,11
B4,4,B,2006,D,10
B4,4,B,2006,D,137
B4,4,B,2006,D,11
B4,4,B,2006,D,11
B4,4,B,2006,D,9
B4,4,B,2006,D,11
B4,4,B,2006,W,19
B4,4,B,2006,W,15
B4,4,B,2006,W,18
B4,4,B,2006,W,21
B4,4,B,2006,W,119
B4,4,B,2006,W,20
B4,4,B,2006,W,23
B4,4,B,2006,W,17
B4,4,B,2006,W,15
B5,5,B,2006,D,16
B5,5,B,2006,D,23
B5,5,B,2006,D,25
B5,5,B,2006,D,26
B5,5,B,2006,D,128
B5,5,B,2006,D,22
B5,5,B,2006,D,23
B5,5,B,2006,D,17
B5,5,B,2006,D,26
B5,5,B,2006,W,16
B5,5,B,2006,W,21
B5,5,B,2006,W,19
B5,5,B,2006,W,22
B5,5,B,2006,W,181
B5,5,B,2006,W,22
B5,5,B,2006,W,24
B5,5,B,2006,W,24
B5,5,B,2006,W,22
B6,6,B,2006,D,22
B6,6,B,2006,D,28
B6,6,B,2006,D,26
B6,6,B,2006,D,26
B6,6,B,2006,D,139
B6,6,B,2006,D,21
B6,6,B,2006,D,26
B6,6,B,2006,D,24
B6,6,B,2006,D,22
B6,6,B,2006,W,21
B6,6,B,2006,W,24
B6,6,B,2006,W,24
B6,6,B,2006,W,21
B6,6,B,2006,W,101
B6,6,B,2006,W,20
B6,6,B,2006,W,18
B6,6,B,2006,W,21
B6,6,B,2006,W,20
B1,1,B,2007,D,24
B1,1,B,2007,D,15
B1,1,B,2007,D,15
B1,1,B,2007,D,17
B1,1,B,2007,D,168
B1,1,B,2007,D,17
B1,1,B,2007,D,20
B1,1,B,2007,D,19
B1,1,B,2007,D,16
B1,1,B,2007,W,26
B1,1,B,2007,W,24
B1,1,B,2007,W,28
B1,1,B,2007,W,26
B1,1,B,2007,W,135
B1,1,B,2007,W,21
B1,1,B,2007,W,25
B1,1,B,2007,W,31
B1,1,B,2007,W,26
B2,2,B,2007,D,16
B2,2,B,2007,D,16
B2,2,B,2007,D,14
B2,2,B,2007,D,13
B2,2,B,2007,D,60
B2,2,B,2007,D,13
B2,2,B,2007,D,16
B2,2,B,2007,D,14
B2,2,B,2007,D,14
B2,2,B,2007,W,15
B2,2,B,2007,W,20
B2,2,B,2007,W,22
B2,2,B,2007,W,24
B2,2,B,2007,W,94
B2,2,B,2007,W,24
B2,2,B,2007,W,21
B2,2,B,2007,W,23
B2,2,B,2007,W,25
B3,3,B,2007,D,33
B3,3,B,2007,D,34
B3,3,B,2007,D,29
B3,3,B,2007,D,34
B3,3,B,2007,D,75
B3,3,B,2007,D,30
B3,3,B,2007,D,35
B3,3,B,2007,D,34
B3,3,B,2007,D,33
B3,3,B,2007,W,4
B3,3,B,2007,W,2
B3,3,B,2007,W,6
B3,3,B,2007,W,10
B3,3,B,2007,W,72
B3,3,B,2007,W,10
B3,3,B,2007,W,7
B3,3,B,2007,W,9
B3,3,B,2007,W,9
B4,4,B,2007,D,13
B4,4,B,2007,D,14
B4,4,B,2007,D,14
B4,4,B,2007,D,15
B4,4,B,2007,D,111
B4,4,B,2007,D,15
B4,4,B,2007,D,11
B4,4,B,2007,D,12
B4,4,B,2007,D,15
B4,4,B,2007,W,9
B4,4,B,2007,W,8
B4,4,B,2007,W,10
B4,4,B,2007,W,12
B4,4,B,2007,W,22
B4,4,B,2007,W,7
B4,4,B,2007,W,12
B4,4,B,2007,W,12
B4,4,B,2007,W,8
B5,5,B,2007,D,15
B5,5,B,2007,D,19
B5,5,B,2007,D,24
B5,5,B,2007,D,25
B5,5,B,2007,D,127
B5,5,B,2007,D,22
B5,5,B,2007,D,16
B5,5,B,2007,D,15
B5,5,B,2007,D,26
B5,5,B,2007,W,27
B5,5,B,2007,W,25
B5,5,B,2007,W,27
B5,5,B,2007,W,26
B5,5,B,2007,W,181
B5,5,B,2007,W,27
B5,5,B,2007,W,27
B5,5,B,2007,W,24
B5,5,B,2007,W,26
B6,6,B,2007,D,17
B6,6,B,2007,D,26
B6,6,B,2007,D,22
B6,6,B,2007,D,26
B6,6,B,2007,D,78
B6,6,B,2007,D,21
B6,6,B,2007,D,22
B6,6,B,2007,D,20
B6,6,B,2007,D,21
C1,1,C,2004,D,33
C1,1,C,2004,D,21
C1,1,C,2004,D,24
C1,1,C,2004,D,21
C1,1,C,2004,D,205
C1,1,C,2004,D,24
C1,1,C,2004,D,31
C1,1,C,2004,D,28
C1,1,C,2004,D,26
C2,2,C,2004,W,32
C2,2,C,2004,W,34
C2,2,C,2004,W,27
C2,2,C,2004,W,28
C2,2,C,2004,W,241
C2,2,C,2004,W,39
C2,2,C,2004,W,33
C2,2,C,2004,W,34
C2,2,C,2004,W,33
C2,2,C,2004,D,18
C2,2,C,2004,D,16
C2,2,C,2004,D,16
C2,2,C,2004,D,13
C2,2,C,2004,D,149
C2,2,C,2004,D,15
C2,2,C,2004,D,13
C2,2,C,2004,D,15
C2,2,C,2004,D,14
C2,2,C,2004,W,24
C2,2,C,2004,W,23
C2,2,C,2004,W,25
C2,2,C,2004,W,27
C2,2,C,2004,W,198
C2,2,C,2004,W,29
C2,2,C,2004,W,27
C2,2,C,2004,W,19
C2,2,C,2004,W,29
C3,3,C,2004,D,41
C3,3,C,2004,D,42
C3,3,C,2004,D,43
C3,3,C,2004,D,43
C3,3,C,2004,D,201
C3,3,C,2004,D,39
C3,3,C,2004,D,39
C3,3,C,2004,D,40
C3,3,C,2004,D,40
C3,3,C,2004,W,12
C3,3,C,2004,W,11
C3,3,C,2004,W,11
C3,3,C,2004,W,11
C3,3,C,2004,W,183
C3,3,C,2004,W,23
C3,3,C,2004,W,28
C3,3,C,2004,W,22
C3,3,C,2004,W,20
C4,4,C,2004,D,22
C4,4,C,2004,D,20
C4,4,C,2004,D,22
C4,4,C,2004,D,22
C4,4,C,2004,D,165
C4,4,C,2004,D,19
C4,4,C,2004,D,26
C4,4,C,2004,D,23
C4,4,C,2004,D,23
C4,4,C,2004,W,20
C4,4,C,2004,W,19
C4,4,C,2004,W,22
C4,4,C,2004,W,24
C4,4,C,2004,W,199
C4,4,C,2004,W,22
C4,4,C,2004,W,20
C4,4,C,2004,W,24
C4,4,C,2004,W,21
C5,5,C,2004,D,29
C5,5,C,2004,D,33
C5,5,C,2004,D,29
C5,5,C,2004,D,32
C5,5,C,2004,D,334
C5,5,C,2004,D,39
C5,5,C,2004,D,33
C5,5,C,2004,D,30
C5,5,C,2004,D,33
C5,5,C,2004,W,32
C5,5,C,2004,W,24
C5,5,C,2004,W,24
C5,5,C,2004,W,26
C5,5,C,2004,W,322
C5,5,C,2004,W,31
C5,5,C,2004,W,28
C5,5,C,2004,W,26
C5,5,C,2004,W,31
C6,6,C,2004,D,19
C6,6,C,2004,D,17
C6,6,C,2004,D,21
C6,6,C,2004,D,21
C6,6,C,2004,D,156
C6,6,C,2004,D,22
C6,6,C,2004,D,22
C6,6,C,2004,D,25
C6,6,C,2004,D,25
C6,6,C,2004,W,30
C6,6,C,2004,W,27
C6,6,C,2004,W,31
C6,6,C,2004,W,30
C6,6,C,2004,W,252
C6,6,C,2004,W,31
C6,6,C,2004,W,30
C6,6,C,2004,W,29
C6,6,C,2004,W,29
C1,1,C,2005,D,25
C1,1,C,2005,D,14
C1,1,C,2005,D,21
C1,1,C,2005,D,17
C1,1,C,2005,D,124
C1,1,C,2005,D,15
C1,1,C,2005,D,17
C1,1,C,2005,D,17
C1,1,C,2005,D,17
C2,2,C,2005,D,9
C2,2,C,2005,D,10
C2,2,C,2005,D,10
C2,2,C,2005,D,11
C2,2,C,2005,D,113
C2,2,C,2005,D,10
C2,2,C,2005,D,11
C2,2,C,2005,D,11
C2,2,C,2005,D,7
C3,3,C,2005,D,30
C3,3,C,2005,D,30
C3,3,C,2005,D,34
C3,3,C,2005,D,34
C3,3,C,2005,D,166
C3,3,C,2005,D,35
C3,3,C,2005,D,34
C3,3,C,2005,D,39
C3,3,C,2005,D,37
C4,4,C,2005,D,19
C4,4,C,2005,D,17
C4,4,C,2005,D,16
C4,4,C,2005,D,19
C4,4,C,2005,D,128
C4,4,C,2005,D,19
C4,4,C,2005,D,17
C4,4,C,2005,D,22
C4,4,C,2005,D,17
C5,5,C,2005,D,22
C5,5,C,2005,D,20
C5,5,C,2005,D,19
C5,5,C,2005,D,22
C5,5,C,2005,D,269
C5,5,C,2005,D,25
C5,5,C,2005,D,21
C5,5,C,2005,D,22
C5,5,C,2005,D,24
C6,6,C,2005,D,22
C6,6,C,2005,D,21
C6,6,C,2005,D,23
C6,6,C,2005,D,20
C6,6,C,2005,D,132
C6,6,C,2005,D,25
C6,6,C,2005,D,30
C6,6,C,2005,D,25
C6,6,C,2005,D,21
C1,1,C,2005,W,20
C1,1,C,2005,W,19
C1,1,C,2005,W,24
C1,1,C,2005,W,25
C1,1,C,2005,W,212
C1,1,C,2005,W,18
C1,1,C,2005,W,16
C1,1,C,2005,W,17
C1,1,C,2005,W,18
C2,2,C,2005,W,21
C2,2,C,2005,W,21
C2,2,C,2005,W,22
C2,2,C,2005,W,24
C2,2,C,2005,W,145
C2,2,C,2005,W,23
C2,2,C,2005,W,26
C2,2,C,2005,W,26
C2,2,C,2005,W,26
C3,3,C,2005,W,7
C3,3,C,2005,W,8
C3,3,C,2005,W,8
C3,3,C,2005,W,8
C3,3,C,2005,W,213
C3,3,C,2005,W,5
C3,3,C,2005,W,6
C3,3,C,2005,W,8
C3,3,C,2005,W,8
C4,4,C,2005,W,19
C4,4,C,2005,W,17
C4,4,C,2005,W,23
C4,4,C,2005,W,22
C4,4,C,2005,W,146
C4,4,C,2005,W,14
C4,4,C,2005,W,18
C4,4,C,2005,W,17
C4,4,C,2005,W,17
C5,5,C,2005,W,27
C5,5,C,2005,W,26
C5,5,C,2005,W,22
C5,5,C,2005,W,20
C5,5,C,2005,W,320
C5,5,C,2005,W,24
C5,5,C,2005,W,28
C5,5,C,2005,W,24
C5,5,C,2005,W,25
C6,6,C,2005,W,25
C6,6,C,2005,W,18
C6,6,C,2005,W,21
C6,6,C,2005,W,19
C6,6,C,2005,W,206
C6,6,C,2005,W,14
C6,6,C,2005,W,16
C6,6,C,2005,W,22
C6,6,C,2005,W,26
C1,1,C,2006,D,18
C1,1,C,2006,D,19
C1,1,C,2006,D,23
C1,1,C,2006,D,19
C1,1,C,2006,D,93
C1,1,C,2006,D,16
C1,1,C,2006,D,19
C1,1,C,2006,D,18
C1,1,C,2006,D,14
C1,1,C,2006,W,16
C1,1,C,2006,W,20
C1,1,C,2006,W,23
C1,1,C,2006,W,26
C1,1,C,2006,W,131
C1,1,C,2006,W,22
C1,1,C,2006,W,17
C1,1,C,2006,W,17
C1,1,C,2006,W,27
C2,2,C,2006,D,11
C2,2,C,2006,D,11
C2,2,C,2006,D,10
C2,2,C,2006,D,10
C2,2,C,2006,D,70
C2,2,C,2006,D,12
C2,2,C,2006,D,9
C2,2,C,2006,D,8
C2,2,C,2006,D,7
C2,2,C,2006,W,22
C2,2,C,2006,W,21
C2,2,C,2006,W,25
C2,2,C,2006,W,19
C2,2,C,2006,W,118
C2,2,C,2006,W,16
C2,2,C,2006,W,19
C2,2,C,2006,W,23
C2,2,C,2006,W,26
C3,3,C,2006,D,33
C3,3,C,2006,D,31
C3,3,C,2006,D,30
C3,3,C,2006,D,42
C3,3,C,2006,D,127
C3,3,C,2006,D,34
C3,3,C,2006,D,35
C3,3,C,2006,D,32
C3,3,C,2006,D,32
C3,3,C,2006,W,8
C3,3,C,2006,W,8
C3,3,C,2006,W,7
C3,3,C,2006,W,8
C3,3,C,2006,W,110
C3,3,C,2006,W,6
C3,3,C,2006,W,5
C3,3,C,2006,W,7
C3,3,C,2006,W,5
C4,4,C,2006,D,8
C4,4,C,2006,D,13
C4,4,C,2006,D,15
C4,4,C,2006,D,18
C4,4,C,2006,D,93
C4,4,C,2006,D,19
C4,4,C,2006,D,20
C4,4,C,2006,D,13
C4,4,C,2006,D,16
C4,4,C,2006,W,17
C4,4,C,2006,W,14
C4,4,C,2006,W,16
C4,4,C,2006,W,21
C4,4,C,2006,W,110
C4,4,C,2006,W,16
C4,4,C,2006,W,18
C4,4,C,2006,W,19
C4,4,C,2006,W,16
C5,5,C,2006,D,25
C5,5,C,2006,D,25
C5,5,C,2006,D,23
C5,5,C,2006,D,24
C5,5,C,2006,D,184
C5,5,C,2006,D,22
C5,5,C,2006,D,23
C5,5,C,2006,D,17
C5,5,C,2006,D,21
C5,5,C,2006,W,30
C5,5,C,2006,W,20
C5,5,C,2006,W,23
C5,5,C,2006,W,24
C5,5,C,2006,W,193
C5,5,C,2006,W,24
C5,5,C,2006,W,28
C5,5,C,2006,W,24
C5,5,C,2006,W,30
C6,6,C,2006,D,23
C6,6,C,2006,D,22
C6,6,C,2006,D,20
C6,6,C,2006,D,19
C6,6,C,2006,D,110
C6,6,C,2006,D,21
C6,6,C,2006,D,26
C6,6,C,2006,D,21
C6,6,C,2006,D,22
C6,6,C,2006,W,25
C6,6,C,2006,W,24
C6,6,C,2006,W,20
C6,6,C,2006,W,22
C6,6,C,2006,W,89
C6,6,C,2006,W,14
C6,6,C,2006,W,15
C6,6,C,2006,W,26
C6,6,C,2006,W,27
C1,1,C,2007,D,17
C1,1,C,2007,D,16
C1,1,C,2007,D,22
C1,1,C,2007,D,23
C1,1,C,2007,D,94
C1,1,C,2007,D,19
C1,1,C,2007,D,22
C1,1,C,2007,D,18
C1,1,C,2007,D,19
C1,1,C,2007,W,19
C1,1,C,2007,W,26
C1,1,C,2007,W,25
C1,1,C,2007,W,23
C1,1,C,2007,W,103
C1,1,C,2007,W,25
C1,1,C,2007,W,15
C1,1,C,2007,W,16
C1,1,C,2007,W,22
C2,2,C,2007,D,11
C2,2,C,2007,D,15
C2,2,C,2007,D,13
C2,2,C,2007,D,13
C2,2,C,2007,D,69
C2,2,C,2007,D,12
C2,2,C,2007,D,13
C2,2,C,2007,D,12
C2,2,C,2007,D,9
C2,2,C,2007,W,24
C2,2,C,2007,W,21
C2,2,C,2007,W,20
C2,2,C,2007,W,20
C2,2,C,2007,W,70
C2,2,C,2007,W,21
C2,2,C,2007,W,23
C2,2,C,2007,W,29
C2,2,C,2007,W,28
C3,3,C,2007,D,30
C3,3,C,2007,D,30
C3,3,C,2007,D,29
C3,3,C,2007,D,36
C3,3,C,2007,D,118
C3,3,C,2007,D,32
C3,3,C,2007,D,29
C3,3,C,2007,D,34
C3,3,C,2007,D,38
C3,3,C,2007,W,3
C3,3,C,2007,W,7
C3,3,C,2007,W,9
C3,3,C,2007,W,8
C3,3,C,2007,W,85
C3,3,C,2007,W,5
C3,3,C,2007,W,5
C3,3,C,2007,W,7
C3,3,C,2007,W,8
C4,4,C,2007,D,21
C4,4,C,2007,D,15
C4,4,C,2007,D,17
C4,4,C,2007,D,18
C4,4,C,2007,D,93
C4,4,C,2007,D,17
C4,4,C,2007,D,18
C4,4,C,2007,D,16
C4,4,C,2007,D,23
C4,4,C,2007,W,7
C4,4,C,2007,W,11
C4,4,C,2007,W,14
C4,4,C,2007,W,12
C4,4,C,2007,W,37
C4,4,C,2007,W,10
C4,4,C,2007,W,8
C4,4,C,2007,W,12
C4,4,C,2007,W,9
C5,5,C,2007,D,20
C5,5,C,2007,D,18
C5,5,C,2007,D,22
C5,5,C,2007,D,25
C5,5,C,2007,D,132
C5,5,C,2007,D,19
C5,5,C,2007,D,17
C5,5,C,2007,D,16
C5,5,C,2007,D,18
C5,5,C,2007,W,26
C5,5,C,2007,W,21
C5,5,C,2007,W,18
C5,5,C,2007,W,21
C5,5,C,2007,W,107
C5,5,C,2007,W,21
C5,5,C,2007,W,23
C5,5,C,2007,W,26
C5,5,C,2007,W,24
C6,6,C,2007,D,21
C6,6,C,2007,D,21
C6,6,C,2007,D,19
C6,6,C,2007,D,16
C6,6,C,2007,D,95
C6,6,C,2007,D,22
C6,6,C,2007,D,22
C6,6,C,2007,D,22
C6,6,C,2007,D,18