habitat,R,eaten
Field,10,9.67577393
Field,10,0.829
Field,10,7.8966201
Forest,10,5.646953711
Forest,10,7.412067694
Forest,10,6.225769515
Field,20,5.045831645
Field,20,4.782
Field,20,6.064205901
Forest,20,24.27556851
Forest,20,19.92554564
Forest,20,15.59296444
Field,50,34.69571202
Field,50,18.89567962
Forest,50,55.33838834
Forest,50,20.319
Forest,50,46.068814
Field,100,30.92016964
Field,100,25.94425894
Field,100,27.37943276
Forest,100,75.0820712
Forest,100,48.698
Forest,100,80.45184556